…
This seems to indicate that other than a few outliers, growth is very modest. Let's find out who those outliers are

```r
lowGdp %>%
  arrange(desc(gdpPercap)) %>% 
  filter(year == max(year)) %>% 
  select(country,continent,gdpPercap,everything(),-year)
```

```
## # A tibble: 71 x 5
##                   country continent gdpPercap lifeExp      pop
##                    <fctr>    <fctr>     <dbl>   <dbl>    <int>
##  1                 Taiwan      Asia 28718.277  78.400 23174294
##  2            Korea, Rep.      Asia 23348.140  78.623 49044790
##  3                   Oman      Asia 22316.193  75.640  3204897
##  4               Botswana    Africa 12569.852  50.728  1639131
##  5               Malaysia      Asia 12451.656  74.241 24821286
##  6      Equatorial Guinea    Africa 12154.090  51.579   551201
##  7              Mauritius    Africa 10956.991  72.801  1250882
##  8               Thailand      Asia  7458.396  70.616 65068149
##  9 Bosnia and Herzegovina    Europe  7446.299  74.852  4552198
## 10                Tunisia    Africa  7092.923  73.923 10276158
## # ... with 61 more rows
```
…
