…
In fact the number of african countries with a 'low' life expectancy has actually increased since 1992! This regression is somewhat obscured in the prior graph, although it does correspond to the flattening out of Africa's mean life expectancy.

> Find countries with interesting stories. Open-ended and, therefore, hard. Promising but unsuccessful attempts are encouraged. This will generate interesting questions to follow up on in class.


```r
gapminder %>% 
  filter(continent == 'Africa', year > 1990, year < 2005) %>% 
  group_by(country) %>% 
  summarise(delta = lifeExp[3]-lifeExp[1]) %>% # change in life expectancy over these years
  arrange(delta) # list with worst decreases first
```

```
## # A tibble: 52 x 2
##                     country   delta
##                      <fctr>   <dbl>
##  1                 Zimbabwe -20.388
##  2                 Botswana -16.111
##  3                  Lesotho -15.092
##  4                Swaziland -14.605
##  5                  Namibia -10.520
##  6             South Africa  -8.523
##  7                    Kenya  -8.293
##  8                   Zambia  -6.907
##  9 Central African Republic  -6.088
## 10            Cote d'Ivoire  -5.212
## # ... with 42 more rows
```
…
